%YAML 1.1
%TAG !u! tag:unity3d.com,2011:
--- !u!114 &11400000
MonoBehaviour:
  m_ObjectHideFlags: 0
  m_PrefabParentObject: {fileID: 0}
  m_PrefabInternal: {fileID: 0}
  m_GameObject: {fileID: 0}
  m_Enabled: 1
  m_EditorHideFlags: 0
  m_Script: {fileID: 11500000, guid: 78b75a309ff767a4bb3ede0d5c1d2f6f, type: 3}
  m_Name: QuestSystemLocalizationDbDE
  m_EditorClassIdentifier: 
  _serializedJsonString: '{"_lang":"de-DE","_localizedStrings":{"NO_KEY":"","ea4b67a7-8ce1-4716-ac38-5e6c06029fa6":"Nicht
    schlecht","DefaultMoveToNextNodeText":"","13ff4830-1841-429c-a37b-a7d7927f25c2":"DE
    Text","c644389a-408f-427b-8925-dcb64213708d":"key_to_door","8af3fea6-f4d1-47dc-8422-0f3632ad02f5":"grab
    key to open door","b5586949-a832-47f8-9ad8-dae494c0cd99":"bleh","319a3c9b-f0f8-49a5-8247-a3f98fb81f20":"grab
    key","a6373259-0dd6-43af-b0ba-5e95cec50cee":"adsvfwd","7c5f2525-cf8f-49b3-8eba-bfbaf49f01ec":"open
    door"},"_localizedObjects":{"740ca4d8-7941-4483-904e-392f33131535":null}}'
  _objectReferences: []
  _lang: de-DE
