%YAML 1.1
%TAG !u! tag:unity3d.com,2011:
--- !u!114 &11400000
MonoBehaviour:
  m_ObjectHideFlags: 0
  m_PrefabParentObject: {fileID: 0}
  m_PrefabInternal: {fileID: 0}
  m_GameObject: {fileID: 0}
  m_Enabled: 1
  m_EditorHideFlags: 0
  m_Script: {fileID: 11500000, guid: bd1b04f7aa160c3428767bf8c847bd2b, type: 3}
  m_Name: Dialogue131089399984261854
  m_EditorClassIdentifier: 
  _serializedJsonString: '{"name":null,"description":null,"helpUrl":null,"_nodes":[{"_index":0,"ownerType":1,"useAutoFocus":true,"_edges":[{"toNodeIndex":5,"conditions":[]}],"_message":{"_key":"NO_KEY"},"audioInfo":{"audioClip":{"_key":null},"volume":1.0,"pitch":1.0,"loop":false},"motionInfo":{"motion":null,"speed":1.0},"_editorPosition":{"x":-164.0,"y":-196.0},"$type":"Devdog.QuestSystemPro.Dialogue.EntryNode"},{"_index":1,"ownerType":1,"useAutoFocus":true,"_edges":[],"_message":{"_key":"NO_KEY"},"audioInfo":{"audioClip":{"_key":null},"volume":1.0,"pitch":1.0,"loop":false,"$id":"9"},"motionInfo":{"motion":null,"speed":1.0,"$id":"11"},"_editorPosition":{"x":-306.0,"y":789.0},"$type":"Devdog.QuestSystemPro.Dialogue.Node"},{"_index":2,"ownerType":1,"useAutoFocus":true,"_edges":[],"_message":{"_key":"NO_KEY"},"audioInfo":{"$ref":"9"},"motionInfo":{"$ref":"11"},"_editorPosition":{"x":-63.0,"y":791.0},"$type":"Devdog.QuestSystemPro.Dialogue.Node"},{"_index":3,"ownerType":1,"useAutoFocus":true,"_edges":[],"_message":{"_key":"NO_KEY"},"audioInfo":{"$ref":"9"},"motionInfo":{"$ref":"11"},"_editorPosition":{"x":177.0,"y":793.0},"$type":"Devdog.QuestSystemPro.Dialogue.Node"},{"_index":4,"ownerType":1,"useAutoFocus":true,"_edges":[],"_message":{"_key":"346997d3-7f3d-420e-a749-3c616be7fbab"},"audioInfo":{"$ref":"9"},"motionInfo":{"$ref":"11"},"_editorPosition":{"x":-285.0,"y":78.0},"$type":"Devdog.QuestSystemPro.Dialogue.Node"},{"_index":5,"ownerType":1,"useAutoFocus":true,"_edges":[{"toNodeIndex":4,"conditions":[{"onlyUncompletable":true,"quests":[0],"canViewEndNode":false,"$type":"Devdog.QuestSystemPro.Dialogue.HasActiveQuestEdgeCondition"}]}],"_message":{"_key":"NO_KEY"},"audioInfo":{"audioClip":{"_key":null},"volume":1.0,"pitch":1.0,"loop":false},"motionInfo":{"motion":null,"speed":1.0},"_editorPosition":{"x":-165.0,"y":-75.0},"$type":"Devdog.QuestSystemPro.Dialogue.SplitNode"}],"conditions":[],"variables":{"variables":[]}}'
  _objectReferences:
  - {fileID: 11400000, guid: 7ebab914028a9d048bb832a37e036c90, type: 2}
  name: 
  description: 
  helpUrl: 
