%YAML 1.1
%TAG !u! tag:unity3d.com,2011:
--- !u!114 &11400000
MonoBehaviour:
  m_ObjectHideFlags: 0
  m_PrefabParentObject: {fileID: 0}
  m_PrefabInternal: {fileID: 0}
  m_GameObject: {fileID: 0}
  m_Enabled: 1
  m_EditorHideFlags: 0
  m_Script: {fileID: 11500000, guid: bd1b04f7aa160c3428767bf8c847bd2b, type: 3}
  m_Name: Dialogue2
  m_EditorClassIdentifier: 
  _serializedJsonString: '{"name":null,"description":null,"helpUrl":null,"_nodes":[{"_index":0,"ownerType":0,"useAutoFocus":true,"_edges":[],"_message":{"_key":"NO_KEY"},"audioInfo":{"audioClip":{"_key":null},"volume":1.0,"pitch":1.0,"loop":false},"motionInfo":{"motion":null,"speed":1.0},"_editorPosition":{"x":0.0,"y":0.0},"$type":"Devdog.QuestSystemPro.Dialogue.EntryNode"}],"conditions":[],"variables":{"variables":[]}}'
  _objectReferences: []
  name: 
  description: 
  helpUrl: 
