%YAML 1.1
%TAG !u! tag:unity3d.com,2011:
--- !u!114 &11400000
MonoBehaviour:
  m_ObjectHideFlags: 0
  m_PrefabParentObject: {fileID: 0}
  m_PrefabInternal: {fileID: 0}
  m_GameObject: {fileID: 0}
  m_Enabled: 1
  m_EditorHideFlags: 0
  m_Script: {fileID: 11500000, guid: bd1b04f7aa160c3428767bf8c847bd2b, type: 3}
  m_Name: Dialogue131544917287109750
  m_EditorClassIdentifier: 
  _serializedJsonString: '{"name":null,"description":null,"helpUrl":null,"_nodes":[{"_index":0,"ownerType":1,"useAutoFocus":true,"_edges":[{"toNodeIndex":1,"conditions":[]}],"_message":{"_key":"NO_KEY"},"audioInfo":{"audioClip":{"_key":null},"volume":1.0,"pitch":1.0,"loop":false},"motionInfo":{"motion":null,"speed":1.0},"_editorPosition":{"x":889.0,"y":15.0},"$type":"Devdog.QuestSystemPro.Dialogue.EntryNode"},{"_playerDecisions":[{"option":{"_key":"8939c81c-0a0f-423c-96b7-d4664027406a"}},{"option":{"_key":"88c09a8c-8f00-4a9b-9b38-f55966762f98"}}],"_index":1,"ownerType":1,"useAutoFocus":true,"_edges":[{"toNodeIndex":2,"conditions":[]},{"toNodeIndex":3,"conditions":[]}],"_message":{"_key":"e729e126-b07c-4931-86d9-acd1e28baada"},"audioInfo":{"audioClip":{"_key":"a1a4a204-f8f2-4ca8-905c-3ebcc69ff27b"},"volume":1.0,"pitch":1.0,"loop":false},"motionInfo":{"motion":null,"speed":1.0},"_editorPosition":{"x":889.0,"y":98.0},"$type":"Devdog.QuestSystemPro.Dialogue.PlayerDecisionNode"},{"quests":[0],"status":0,"_index":2,"ownerType":1,"useAutoFocus":true,"_edges":[{"toNodeIndex":4,"conditions":[]}],"_message":{"_key":"NO_KEY"},"audioInfo":{"audioClip":{"_key":null},"volume":1.0,"pitch":1.0,"loop":false},"motionInfo":{"motion":null,"speed":1.0},"_editorPosition":{"x":451.0,"y":69.0},"$type":"Devdog.QuestSystemPro.Dialogue.ChangeQuestStatusNode"},{"_index":3,"ownerType":0,"useAutoFocus":true,"_edges":[],"_message":{"_key":"df672ab9-bbef-43a2-ba22-a1f7cbc4902a"},"audioInfo":{"audioClip":{"_key":"8a226c82-d611-4c51-a435-956e6470b0cf"},"volume":1.0,"pitch":1.0,"loop":false},"motionInfo":{"motion":null,"speed":1.0},"_editorPosition":{"x":1039.0,"y":418.0},"$type":"Devdog.QuestSystemPro.Dialogue.Node"},{"_index":4,"ownerType":0,"useAutoFocus":true,"_edges":[],"_message":{"_key":"fc55bf94-1414-42d7-a812-35588f47ec23"},"audioInfo":{"audioClip":{"_key":"ebbc5512-bca9-4e6a-ad00-f1144768cf80"},"volume":1.0,"pitch":1.0,"loop":false},"motionInfo":{"motion":null,"speed":1.0},"_editorPosition":{"x":405.0,"y":242.0},"$type":"Devdog.QuestSystemPro.Dialogue.Node"}],"conditions":[],"variables":{"variables":[]}}'
  _objectReferences:
  - {fileID: 11400000, guid: 588e8c0ad4415e54e8d32e53183e722e, type: 2}
  name: 
  description: 
  helpUrl: 
