%YAML 1.1
%TAG !u! tag:unity3d.com,2011:
--- !u!114 &11400000
MonoBehaviour:
  m_ObjectHideFlags: 0
  m_PrefabParentObject: {fileID: 0}
  m_PrefabInternal: {fileID: 0}
  m_GameObject: {fileID: 0}
  m_Enabled: 1
  m_EditorHideFlags: 0
  m_Script: {fileID: 11500000, guid: bd1b04f7aa160c3428767bf8c847bd2b, type: 3}
  m_Name: Dialogue131553574727160901
  m_EditorClassIdentifier: 
  _serializedJsonString: '{"name":null,"description":null,"helpUrl":null,"_nodes":[{"_index":0,"ownerType":1,"useAutoFocus":true,"_edges":[{"toNodeIndex":1,"conditions":[]}],"_message":{"_key":"NO_KEY"},"audioInfo":{"audioClip":{"_key":null},"volume":1.0,"pitch":1.0,"loop":false},"motionInfo":{"motion":null,"speed":1.0},"_editorPosition":{"x":491.0,"y":26.0},"$type":"Devdog.QuestSystemPro.Dialogue.EntryNode"},{"_playerDecisions":[{"option":{"_key":"311b05f1-5d5d-451d-bbcf-58699c025b53"}},{"option":{"_key":"496d8533-9c97-4e13-a9a5-b3cc21f458c5"}}],"_index":1,"ownerType":1,"useAutoFocus":true,"_edges":[{"toNodeIndex":2,"conditions":[]},{"toNodeIndex":3,"conditions":[]}],"_message":{"_key":"67da72dd-5ce4-4cd8-8d63-c73c7f73a9bf"},"audioInfo":{"audioClip":{"_key":"6a5d3ec7-ad47-4747-8366-52017c157829"},"volume":1.0,"pitch":1.0,"loop":false},"motionInfo":{"motion":null,"speed":1.0},"_editorPosition":{"x":513.0,"y":171.0},"$type":"Devdog.QuestSystemPro.Dialogue.PlayerDecisionNode"},{"_index":2,"ownerType":0,"useAutoFocus":true,"_edges":[],"_message":{"_key":"44fb1582-ea0c-4560-8e72-36f11a7f4729"},"audioInfo":{"audioClip":{"_key":"d09fffee-abb9-4968-acf3-24169074c65d"},"volume":1.0,"pitch":1.0,"loop":false},"motionInfo":{"motion":null,"speed":1.0},"_editorPosition":{"x":412.0,"y":549.0},"$type":"Devdog.QuestSystemPro.Dialogue.Node"},{"_index":3,"ownerType":0,"useAutoFocus":true,"_edges":[],"_message":{"_key":"c395059c-fbb7-4898-859b-0db7f476f41d"},"audioInfo":{"audioClip":{"_key":"0d6c95dc-8346-4032-aa8a-166bf7ca5255"},"volume":1.0,"pitch":1.0,"loop":false},"motionInfo":{"motion":null,"speed":1.0},"_editorPosition":{"x":716.0,"y":560.0},"$type":"Devdog.QuestSystemPro.Dialogue.Node"}],"conditions":[],"variables":{"variables":[]}}'
  _objectReferences: []
  name: 
  description: 
  helpUrl: 
