%YAML 1.1
%TAG !u! tag:unity3d.com,2011:
--- !u!114 &11400000
MonoBehaviour:
  m_ObjectHideFlags: 0
  m_PrefabParentObject: {fileID: 0}
  m_PrefabInternal: {fileID: 0}
  m_GameObject: {fileID: 0}
  m_Enabled: 1
  m_EditorHideFlags: 0
  m_Script: {fileID: 11500000, guid: 0763b70f85cfe5f4e93fd923c8b3d84a, type: 3}
  m_Name: Quest
  m_EditorClassIdentifier: 
  _serializedJsonString: '{"ID":1,"name":{"_key":"c644389a-408f-427b-8925-dcb64213708d"},"description":{"_key":"8af3fea6-f4d1-47dc-8422-0f3632ad02f5"},"icon":0,"autoCompleteWhenTasksAreDone":true,"taskOrder":1,"_tasks":[{"key":"Escape1","description":{"_key":"b5586949-a832-47f8-9ad8-dae494c0cd99"},"statusMessage":{"_key":"319a3c9b-f0f8-49a5-8247-a3f98fb81f20"},"_icon":1,"_progressCap":1.0,"autoComplete":true,"useTimeLimit":false,"timeLimitInSeconds":300.0,"requirement":0,"giveRewardsOnTaskComplete":true,"rewardGivers":[],"overAchievements":[]},{"key":"Escape2","description":{"_key":"a6373259-0dd6-43af-b0ba-5e95cec50cee"},"statusMessage":{"_key":"7c5f2525-cf8f-49b3-8eba-bfbaf49f01ec"},"_icon":null,"_progressCap":1.0,"autoComplete":true,"useTimeLimit":false,"timeLimitInSeconds":300.0,"requirement":0,"giveRewardsOnTaskComplete":true,"rewardGivers":[],"overAchievements":[]}],"onActivationRewardGivers":[],"rewardGivers":[],"maxRepeatTimes":1,"requiresFinishedQuests":[],"conditions":[],"timeHandler":{"failQuestWhenOutOfTime":true,"$type":"Devdog.QuestSystemPro.QuestTimeHandler"}}'
  _objectReferences:
  - {fileID: 21300002, guid: 01c924784ed9e184a86aa0df6dfb7a39, type: 3}
  - {fileID: 21300004, guid: dfe7a05d5f3fda04694b31ff866c5a56, type: 3}
  ID: 1
  name:
    _key: c644389a-408f-427b-8925-dcb64213708d
  description:
    _key: 8af3fea6-f4d1-47dc-8422-0f3632ad02f5
  icon: {fileID: 21300002, guid: 01c924784ed9e184a86aa0df6dfb7a39, type: 3}
  autoCompleteWhenTasksAreDone: 1
  taskOrder: 1
  maxRepeatTimes: 1
